Computer Vision with NFL player tracking data using Torch for R
…
defense_df <- df %>%
  filter(defense == 1) %>%
  select(play, frame_id, nfl_id, x, y, s_x, s_y, a_x, a_y, o_to_qb, dist_from_los)

rel_df <- defense_df %>%
  # since there are duplicates at each play & frame this creates 1 entry per offense-defense player combination
  left_join(offense_df, by = c("play", "frame_id")) %>%
  mutate(diff_x = o_x - x, diff_y = o_y - y, diff_s_x = o_s_x - s_x, diff_s_y = o_s_y - s_y, diff_a_x = o_a_x - a_x, diff_a_y = o_a_y - a_y) %>%
  select(play, frame_id, nfl_id, dist_from_los, y, s_x, s_y, a_x, a_y, o_to_qb, starts_with("diff_"))

rel_df %>%
  select(nfl_id, dist_from_los, y, diff_x, diff_y)

#> # A tibble: 39,368 x 5
#>     nfl_id dist_from_los     y diff_x  diff_y
#>      <dbl>         <dbl> <dbl>  <dbl>   <dbl>
#>  1 2539334          4.03  15.5 -0.37   -1.47 
#>  2 2539334          4.03  15.5 -0.88   16.4  
#>  3 2539334          4.03  15.5 -8.7    15.8  
#>  4 2539334          4.03  15.5  0.930  22.1  
#>  5 2539334          4.03  15.5 -6.18    6.53 
#>  6 2539653          5.28  38.1 -1.62  -24.1  
#>  7 2539653          5.28  38.1 -2.13   -6.17 
#>  8 2539653          5.28  38.1 -9.95   -6.79 
#>  9 2539653          5.28  38.1 -0.32   -0.460
#> 10 2539653          5.28  38.1 -7.43  -16.1  
#> # ... with 39,358 more rows
…
n_frames <- n_distinct(play_indices$f)
n_plays <- n_distinct(play_indices$i)
n_class <- n_distinct(play_indices$coverage)

def_only_features <- 7
off_def_features <- 6
n_features <- def_only_features + off_def_features

play_indices

#> # A tibble: 1,018 x 6
#>    play            frame_id  week coverage         i     f
#>    <chr>              <dbl> <int> <chr>        <int> <int>
#>  1 2018090600_1037       31     1 Cover 2 Man      1     1
#>  2 2018090600_1061       31     1 Cover 1 Man      2     1
#>  3 2018090600_1085       31     1 Cover 3 Zone     3     1
#>  4 2018090600_1202       31     1 Cover 3 Zone     4     1
#>  5 2018090600_1226       31     1 Cover 1 Man      5     1
#>  6 2018090600_1295       31     1 Cover 1 Man      6     1
#>  7 2018090600_1344       31     1 Cover 4 Zone     7     1
#>  8 2018090600_1423       31     1 Cover 3 Zone     8     1
#>  9 2018090600_146        31     1 Cover 3 Zone     9     1
#> 10 2018090600_1473       31     1 Cover 3 Zone    10     1
#> # ... with 1,008 more rows
…
defenders <- n_distinct(play_df$nfl_id)
n_offense <- nrow(play_df) / defenders

play_df <- play_df %>% select(-nfl_id)

defenders

#> [1] 7

play_df

#> # A tibble: 35 x 13
#>    dist_from_los     y   s_x   s_y   a_x    a_y o_to_qb diff_x  diff_y
#>            <dbl> <dbl> <dbl> <dbl> <dbl>  <dbl>   <dbl>  <dbl>   <dbl>
#>  1          4.03  15.5  5.27 -3.65  2.44 -1.69    0.987 -0.37   -1.47 
#>  2          4.03  15.5  5.27 -3.65  2.44 -1.69    0.987 -0.88   16.4  
#>  3          4.03  15.5  5.27 -3.65  2.44 -1.69    0.987 -8.7    15.8  
#>  4          4.03  15.5  5.27 -3.65  2.44 -1.69    0.987  0.930  22.1  
#>  5          4.03  15.5  5.27 -3.65  2.44 -1.69    0.987 -6.18    6.53 
#>  6          5.28  38.1  4.60 -1.61  2.04 -0.712   0.205 -1.62  -24.1  
#>  7          5.28  38.1  4.60 -1.61  2.04 -0.712   0.205 -2.13   -6.17 
#>  8          5.28  38.1  4.60 -1.61  2.04 -0.712   0.205 -9.95   -6.79 
#>  9          5.28  38.1  4.60 -1.61  2.04 -0.712   0.205 -0.32   -0.460
#> 10          5.28  38.1  4.60 -1.61  2.04 -0.712   0.205 -7.43  -16.1  
#> # ... with 25 more rows, and 4 more variables: diff_s_x <dbl>,
#> #   diff_s_y <dbl>, diff_a_x <dbl>, diff_a_y <dbl>
…
