Open Source Football: NFL win probability from scratch using xgboost in R
…
grid

# A tibble: 40 x 7
   colsample_bytree min_child_weight max_depth    eta    gamma
              <dbl>            <int>     <int>  <dbl>    <dbl>
 1           0.583                33         5 0.0600 1.91e+ 1
 2           0.167                26        12 0.237  5.98e- 7
 3           0.417                36        13 0.155  6.46e- 1
 4           0.5                  20        12 0.0925 7.95e- 8
 5           0.833                34         3 0.167  2.55e- 9
 6           0.333                31         4 0.254  7.40e+ 0
 7           0.0833                6         3 0.186  2.21e- 4
 8           0.25                 26         8 0.228  3.22e- 5
 9           0.0833               19         2 0.0383 2.23e-10
10           0.667                38        11 0.0783 5.85e-10
# ... with 30 more rows, and 2 more variables: subsample <dbl>,
#   monotone_constraints <chr>
…
grid

# A tibble: 40 x 7
   colsample_bytree min_child_weight max_depth    eta   gamma
              <dbl>            <int>     <int>  <dbl>   <dbl>
 1            0.917                8         8 0.0426 5.30e-3
 2            0.75                18         6 0.0897 8.48e-3
 3            0.417               27         6 0.0973 2.38e-4
 4            0.5                 38         5 0.0604 1.05e+1
 5            0.75                31         6 0.0337 1.79e-2
 6            0.75                39         7 0.0674 1.45e+0
 7            0.25                 8         8 0.0495 1.13e-5
 8            0.417                3         4 0.0459 1.36e-9
 9            0.417               10         7 0.0820 6.86e-5
10            0.667               19         6 0.0562 2.72e-6
# ... with 30 more rows, and 2 more variables: subsample <dbl>,
#   monotone_constraints <chr>
…
--BEST LOGLOSS--

No monotone constraint on spread_time:
0.44787

Monotone constraint on spread_time:
0.44826

It doesnt seem to make much of a difference but since it should be monotonic (teams favored by more should have higher win prob, and the strength of point spread should decrease as the game goes on), lets use that model. I find it a bit puzzling that adding the constraint doesnt actually help the logloss, but oh well.

results2 %>%
  dplyr::arrange(logloss) %>%
  dplyr::select(eta, subsample, colsample_bytree, max_depth, logloss, min_child_weight, iter)

# A tibble: 40 x 7
      eta subsample colsample_bytree max_depth logloss
    <dbl>     <dbl>            <dbl>     <int>   <dbl>
 1 0.0334     0.528            0.5           7   0.448
 2 0.0604     0.476            0.5           5   0.448
 3 0.0543     0.837            0.583         8   0.448
 4 0.0587     0.801            0.583         7   0.448
 5 0.0718     0.452            0.5           6   0.448
 6 0.0765     0.789            0.5           8   0.448
 7 0.0378     0.751            0.75          7   0.448
 8 0.0918     0.404            0.667         7   0.449
 9 0.0319     0.708            0.75          6   0.449
10 0.0562     0.689            0.667         6   0.449
# ... with 30 more rows, and 2 more variables:
#   min_child_weight <int>, iter <int>
…
Now that we have our model, we can predict with the hold out set, which in this case is the 2019 and 2020 seasons. There might be a better way to do this, but I just join the predictions to the test dataframe.

preds <- stats::predict(
  wp_model,
  # get rid of the things not needed for prediction here
  as.matrix(test_data %>% select(-label, -game_id, -season))
) %>%
  tibble::as_tibble() %>%
  dplyr::rename(wp = value) %>%
  dplyr::bind_cols(test_data)

preds

# A tibble: 79,054 x 16
      wp label game_id         season receive_2h_ko spread_time  home
   <dbl> <dbl> <chr>            <int>         <dbl>       <dbl> <dbl>
 1 0.328     0 2019_01_ATL_MIN   2019             0       -3.5      0
 2 0.260     0 2019_01_ATL_MIN   2019             0       -3.35     0
 3 0.260     0 2019_01_ATL_MIN   2019             0       -3.21     0
 4 0.323     0 2019_01_ATL_MIN   2019             0       -3.06     0
 5 0.793     1 2019_01_ATL_MIN   2019             1        3.04     1
 6 0.731     1 2019_01_ATL_MIN   2019             1        2.97     1
 7 0.756     1 2019_01_ATL_MIN   2019             1        2.86     1
 8 0.191     0 2019_01_ATL_MIN   2019             0       -2.82     0
 9 0.201     0 2019_01_ATL_MIN   2019             0       -2.69     0
10 0.184     0 2019_01_ATL_MIN   2019             0       -2.57     0
# ... with 79,044 more rows, and 9 more variables:
#   half_seconds_remaining <dbl>, game_seconds_remaining <dbl>,
#   Diff_Time_Ratio <dbl>, score_differential <dbl>, down <dbl>,
#   ydstogo <dbl>, yardline_100 <dbl>,
#   posteam_timeouts_remaining <dbl>,
#   defteam_timeouts_remaining <dbl>
…
