Open Source Football: The accumulation of QB hits vs passing efficiency
…
I guess these are data errors or something? I dont know.

pbp %>% 
  filter(play_type != "no_play") %>%
  mutate(
    hit = if_else(stringr::str_detect(desc, "\\[") | sack == 1, 1, 0)
  ) %>%
  filter(hit == 1 & qb_hit == 0) %>%
  select(desc)

# A tibble: 373 x 1
   desc                                                               
   <chr>                                                              
 1 (7:04) (Shotgun) 5-T.Taylor sacked ob at BUF 23 for -6 yards (50-R~
 2 (4:41) (Shotgun) 12-T.Brady sacked at BUF 41 for -6 yards (55-J.Hu~
 3 (14:21) 3-R.Wilson sacked ob at SEA 43 for -1 yards (56-J.Peppers).
 4 (13:08) (Shotgun) 5-N.Foles sacked at STL 31 for -6 yards. FUMBLES~
 5 (4:58) (Shotgun) 9-D.Brees sacked at NO 15 for -8 yards (56-J.Smit~
 6 (1:37) (No Huddle, Shotgun) 8-M.Mariota sacked at CLE 43 for -8 ya~
 7 (1:17) (No Huddle, Shotgun) 17-R.Tannehill sacked at MIA 39 for -7~
 8 (14:21) (Shotgun) 12-A.Luck sacked at IND 18 for -5 yards (97-K.Kl~
 9 (11:33) (Shotgun) 5-B.Bortles sacked at NE 31 for -6 yards (91-J.C~
10 (14:13) (Shotgun) 2-M.Vick sacked ob at PIT 27 for 0 yards (52-A.O~
# ... with 363 more rows
…
